-- Merging decision tree log ---
manifest
ADDED from /home/aluno/Downloads/repositorio_taxa/app/src/main/AndroidManifest.xml:2:1-21:12
INJECTED from /home/aluno/Downloads/repositorio_taxa/app/src/main/AndroidManifest.xml:2:1-21:12
INJECTED from /home/aluno/Downloads/repositorio_taxa/app/src/main/AndroidManifest.xml:2:1-21:12
INJECTED from /home/aluno/Downloads/repositorio_taxa/app/src/main/AndroidManifest.xml:2:1-21:12
MERGED from [com.android.support:appcompat-v7:27.1.1] /home/aluno/.gradle/caches/transforms-1/files-1.1/appcompat-v7-27.1.1.aar/edb8a8c9584111e988f71949ab8dd202/AndroidManifest.xml:17:1-22:12
MERGED from [com.android.support.constraint:constraint-layout:1.1.3] /home/aluno/.gradle/caches/transforms-1/files-1.1/constraint-layout-1.1.3.aar/96c68719647d54e86aac3cad3ed3c8b8/AndroidManifest.xml:2:1-11:12
MERGED from [com.android.support:support-fragment:27.1.1] /home/aluno/.gradle/caches/transforms-1/files-1.1/support-fragment-27.1.1.aar/34d854b60bca3716f6bffe7efc1b0352/AndroidManifest.xml:17:1-22:12
MERGED from [com.android.support:animated-vector-drawable:27.1.1] /home/aluno/.gradle/caches/transforms-1/files-1.1/animated-vector-drawable-27.1.1.aar/38c1544a662a1bacd8a9dae22ac5b9a5/AndroidManifest.xml:17:1-22:12
MERGED from [com.android.support:support-core-ui:27.1.1] /home/aluno/.gradle/caches/transforms-1/files-1.1/support-core-ui-27.1.1.aar/8c1f6c11eba5420cfa73b0b63eeecd33/AndroidManifest.xml:17:1-22:12
MERGED from [com.android.support:support-core-utils:27.1.1] /home/aluno/.gradle/caches/transforms-1/files-1.1/support-core-utils-27.1.1.aar/e7aa14f55898bcd988d65f90096318c7/AndroidManifest.xml:17:1-22:12
MERGED from [com.android.support:support-vector-drawable:27.1.1] /home/aluno/.gradle/caches/transforms-1/files-1.1/support-vector-drawable-27.1.1.aar/4e394a868d102c025d588bfc35de2df6/AndroidManifest.xml:17:1-22:12
MERGED from [com.android.support:support-compat:27.1.1] /home/aluno/.gradle/caches/transforms-1/files-1.1/support-compat-27.1.1.aar/e894a78223a7c58f497f73290097637a/AndroidManifest.xml:17:1-22:12
MERGED from [android.arch.lifecycle:livedata-core:1.1.0] /home/aluno/.gradle/caches/transforms-1/files-1.1/livedata-core-1.1.0.aar/2b701566e73db0bb62c84ca31d54c316/AndroidManifest.xml:17:1-22:12
MERGED from [android.arch.lifecycle:viewmodel:1.1.0] /home/aluno/.gradle/caches/transforms-1/files-1.1/viewmodel-1.1.0.aar/ec1246d6e30844ec2abda9adc3760541/AndroidManifest.xml:17:1-22:12
MERGED from [android.arch.lifecycle:runtime:1.1.0] /home/aluno/.gradle/caches/transforms-1/files-1.1/runtime-1.1.0.aar/4f4bf914d5228514fad2ee75d8842d77/AndroidManifest.xml:17:1-22:12
MERGED from [android.arch.core:runtime:1.1.0] /home/aluno/.gradle/caches/transforms-1/files-1.1/runtime-1.1.0.aar/f15444af1aa073272a936023bc34215d/AndroidManifest.xml:17:1-22:12
INJECTED from /home/aluno/Downloads/repositorio_taxa/app/src/main/AndroidManifest.xml:2:1-21:12
INJECTED from /home/aluno/Downloads/repositorio_taxa/app/src/main/AndroidManifest.xml:2:1-21:12
INJECTED from /home/aluno/Downloads/repositorio_taxa/app/src/main/AndroidManifest.xml:2:1-21:12
	package
		ADDED from /home/aluno/Downloads/repositorio_taxa/app/src/main/AndroidManifest.xml:3:5-39
		INJECTED from /home/aluno/Downloads/repositorio_taxa/app/src/main/AndroidManifest.xml
		INJECTED from /home/aluno/Downloads/repositorio_taxa/app/src/main/AndroidManifest.xml
	android:versionName
		INJECTED from /home/aluno/Downloads/repositorio_taxa/app/src/main/AndroidManifest.xml
		ADDED from /home/aluno/Downloads/repositorio_taxa/app/src/main/AndroidManifest.xml:2:1-21:12
		INJECTED from /home/aluno/Downloads/repositorio_taxa/app/src/main/AndroidManifest.xml
	android:versionCode
		INJECTED from /home/aluno/Downloads/repositorio_taxa/app/src/main/AndroidManifest.xml
		ADDED from /home/aluno/Downloads/repositorio_taxa/app/src/main/AndroidManifest.xml:2:1-21:12
		INJECTED from /home/aluno/Downloads/repositorio_taxa/app/src/main/AndroidManifest.xml
	xmlns:android
		ADDED from /home/aluno/Downloads/repositorio_taxa/app/src/main/AndroidManifest.xml:2:11-69
application
ADDED from /home/aluno/Downloads/repositorio_taxa/app/src/main/AndroidManifest.xml:5:5-19:19
MERGED from [com.android.support.constraint:constraint-layout:1.1.3] /home/aluno/.gradle/caches/transforms-1/files-1.1/constraint-layout-1.1.3.aar/96c68719647d54e86aac3cad3ed3c8b8/AndroidManifest.xml:9:5-20
MERGED from [com.android.support.constraint:constraint-layout:1.1.3] /home/aluno/.gradle/caches/transforms-1/files-1.1/constraint-layout-1.1.3.aar/96c68719647d54e86aac3cad3ed3c8b8/AndroidManifest.xml:9:5-20
	android:supportsRtl
		ADDED from /home/aluno/Downloads/repositorio_taxa/app/src/main/AndroidManifest.xml:10:9-35
	android:label
		ADDED from /home/aluno/Downloads/repositorio_taxa/app/src/main/AndroidManifest.xml:8:9-41
	android:roundIcon
		ADDED from /home/aluno/Downloads/repositorio_taxa/app/src/main/AndroidManifest.xml:9:9-54
	android:icon
		ADDED from /home/aluno/Downloads/repositorio_taxa/app/src/main/AndroidManifest.xml:7:9-43
	android:allowBackup
		ADDED from /home/aluno/Downloads/repositorio_taxa/app/src/main/AndroidManifest.xml:6:9-35
	android:theme
		ADDED from /home/aluno/Downloads/repositorio_taxa/app/src/main/AndroidManifest.xml:11:9-40
activity#gaspar.ifsc.internalizao.MainActivity
ADDED from /home/aluno/Downloads/repositorio_taxa/app/src/main/AndroidManifest.xml:12:9-18:20
	android:name
		ADDED from /home/aluno/Downloads/repositorio_taxa/app/src/main/AndroidManifest.xml:12:19-47
intent-filter#action:name:android.intent.action.MAIN+category:name:android.intent.category.LAUNCHER
ADDED from /home/aluno/Downloads/repositorio_taxa/app/src/main/AndroidManifest.xml:13:13-17:29
action#android.intent.action.MAIN
ADDED from /home/aluno/Downloads/repositorio_taxa/app/src/main/AndroidManifest.xml:14:17-69
	android:name
		ADDED from /home/aluno/Downloads/repositorio_taxa/app/src/main/AndroidManifest.xml:14:25-66
category#android.intent.category.LAUNCHER
ADDED from /home/aluno/Downloads/repositorio_taxa/app/src/main/AndroidManifest.xml:16:17-77
	android:name
		ADDED from /home/aluno/Downloads/repositorio_taxa/app/src/main/AndroidManifest.xml:16:27-74
uses-sdk
INJECTED from /home/aluno/Downloads/repositorio_taxa/app/src/main/AndroidManifest.xml reason: use-sdk injection requested
INJECTED from /home/aluno/Downloads/repositorio_taxa/app/src/main/AndroidManifest.xml
INJECTED from /home/aluno/Downloads/repositorio_taxa/app/src/main/AndroidManifest.xml
MERGED from [com.android.support:appcompat-v7:27.1.1] /home/aluno/.gradle/caches/transforms-1/files-1.1/appcompat-v7-27.1.1.aar/edb8a8c9584111e988f71949ab8dd202/AndroidManifest.xml:20:5-44
MERGED from [com.android.support:appcompat-v7:27.1.1] /home/aluno/.gradle/caches/transforms-1/files-1.1/appcompat-v7-27.1.1.aar/edb8a8c9584111e988f71949ab8dd202/AndroidManifest.xml:20:5-44
MERGED from [com.android.support.constraint:constraint-layout:1.1.3] /home/aluno/.gradle/caches/transforms-1/files-1.1/constraint-layout-1.1.3.aar/96c68719647d54e86aac3cad3ed3c8b8/AndroidManifest.xml:5:5-7:41
MERGED from [com.android.support.constraint:constraint-layout:1.1.3] /home/aluno/.gradle/caches/transforms-1/files-1.1/constraint-layout-1.1.3.aar/96c68719647d54e86aac3cad3ed3c8b8/AndroidManifest.xml:5:5-7:41
MERGED from [com.android.support:support-fragment:27.1.1] /home/aluno/.gradle/caches/transforms-1/files-1.1/support-fragment-27.1.1.aar/34d854b60bca3716f6bffe7efc1b0352/AndroidManifest.xml:20:5-44
MERGED from [com.android.support:support-fragment:27.1.1] /home/aluno/.gradle/caches/transforms-1/files-1.1/support-fragment-27.1.1.aar/34d854b60bca3716f6bffe7efc1b0352/AndroidManifest.xml:20:5-44
MERGED from [com.android.support:animated-vector-drawable:27.1.1] /home/aluno/.gradle/caches/transforms-1/files-1.1/animated-vector-drawable-27.1.1.aar/38c1544a662a1bacd8a9dae22ac5b9a5/AndroidManifest.xml:20:5-44
MERGED from [com.android.support:animated-vector-drawable:27.1.1] /home/aluno/.gradle/caches/transforms-1/files-1.1/animated-vector-drawable-27.1.1.aar/38c1544a662a1bacd8a9dae22ac5b9a5/AndroidManifest.xml:20:5-44
MERGED from [com.android.support:support-core-ui:27.1.1] /home/aluno/.gradle/caches/transforms-1/files-1.1/support-core-ui-27.1.1.aar/8c1f6c11eba5420cfa73b0b63eeecd33/AndroidManifest.xml:20:5-44
MERGED from [com.android.support:support-core-ui:27.1.1] /home/aluno/.gradle/caches/transforms-1/files-1.1/support-core-ui-27.1.1.aar/8c1f6c11eba5420cfa73b0b63eeecd33/AndroidManifest.xml:20:5-44
MERGED from [com.android.support:support-core-utils:27.1.1] /home/aluno/.gradle/caches/transforms-1/files-1.1/support-core-utils-27.1.1.aar/e7aa14f55898bcd988d65f90096318c7/AndroidManifest.xml:20:5-44
MERGED from [com.android.support:support-core-utils:27.1.1] /home/aluno/.gradle/caches/transforms-1/files-1.1/support-core-utils-27.1.1.aar/e7aa14f55898bcd988d65f90096318c7/AndroidManifest.xml:20:5-44
MERGED from [com.android.support:support-vector-drawable:27.1.1] /home/aluno/.gradle/caches/transforms-1/files-1.1/support-vector-drawable-27.1.1.aar/4e394a868d102c025d588bfc35de2df6/AndroidManifest.xml:20:5-44
MERGED from [com.android.support:support-vector-drawable:27.1.1] /home/aluno/.gradle/caches/transforms-1/files-1.1/support-vector-drawable-27.1.1.aar/4e394a868d102c025d588bfc35de2df6/AndroidManifest.xml:20:5-44
MERGED from [com.android.support:support-compat:27.1.1] /home/aluno/.gradle/caches/transforms-1/files-1.1/support-compat-27.1.1.aar/e894a78223a7c58f497f73290097637a/AndroidManifest.xml:20:5-44
MERGED from [com.android.support:support-compat:27.1.1] /home/aluno/.gradle/caches/transforms-1/files-1.1/support-compat-27.1.1.aar/e894a78223a7c58f497f73290097637a/AndroidManifest.xml:20:5-44
MERGED from [android.arch.lifecycle:livedata-core:1.1.0] /home/aluno/.gradle/caches/transforms-1/files-1.1/livedata-core-1.1.0.aar/2b701566e73db0bb62c84ca31d54c316/AndroidManifest.xml:20:5-44
MERGED from [android.arch.lifecycle:livedata-core:1.1.0] /home/aluno/.gradle/caches/transforms-1/files-1.1/livedata-core-1.1.0.aar/2b701566e73db0bb62c84ca31d54c316/AndroidManifest.xml:20:5-44
MERGED from [android.arch.lifecycle:viewmodel:1.1.0] /home/aluno/.gradle/caches/transforms-1/files-1.1/viewmodel-1.1.0.aar/ec1246d6e30844ec2abda9adc3760541/AndroidManifest.xml:20:5-44
MERGED from [android.arch.lifecycle:viewmodel:1.1.0] /home/aluno/.gradle/caches/transforms-1/files-1.1/viewmodel-1.1.0.aar/ec1246d6e30844ec2abda9adc3760541/AndroidManifest.xml:20:5-44
MERGED from [android.arch.lifecycle:runtime:1.1.0] /home/aluno/.gradle/caches/transforms-1/files-1.1/runtime-1.1.0.aar/4f4bf914d5228514fad2ee75d8842d77/AndroidManifest.xml:20:5-44
MERGED from [android.arch.lifecycle:runtime:1.1.0] /home/aluno/.gradle/caches/transforms-1/files-1.1/runtime-1.1.0.aar/4f4bf914d5228514fad2ee75d8842d77/AndroidManifest.xml:20:5-44
MERGED from [android.arch.core:runtime:1.1.0] /home/aluno/.gradle/caches/transforms-1/files-1.1/runtime-1.1.0.aar/f15444af1aa073272a936023bc34215d/AndroidManifest.xml:20:5-44
MERGED from [android.arch.core:runtime:1.1.0] /home/aluno/.gradle/caches/transforms-1/files-1.1/runtime-1.1.0.aar/f15444af1aa073272a936023bc34215d/AndroidManifest.xml:20:5-44
INJECTED from /home/aluno/Downloads/repositorio_taxa/app/src/main/AndroidManifest.xml
INJECTED from /home/aluno/Downloads/repositorio_taxa/app/src/main/AndroidManifest.xml
	android:targetSdkVersion
		INJECTED from /home/aluno/Downloads/repositorio_taxa/app/src/main/AndroidManifest.xml
		ADDED from /home/aluno/Downloads/repositorio_taxa/app/src/main/AndroidManifest.xml
		INJECTED from /home/aluno/Downloads/repositorio_taxa/app/src/main/AndroidManifest.xml
	android:minSdkVersion
		INJECTED from /home/aluno/Downloads/repositorio_taxa/app/src/main/AndroidManifest.xml
		ADDED from /home/aluno/Downloads/repositorio_taxa/app/src/main/AndroidManifest.xml
		INJECTED from /home/aluno/Downloads/repositorio_taxa/app/src/main/AndroidManifest.xml
